[
  {
    "name": "Regulamento do Programa",
    "href": "http://200.201.88.199/portalpos/media/File/tecnologiaegestao/Regulamento%20do%20PPGTGS%201362015-CEPE.pdf"
  },
  {
    "name": "Projeto Pedagógico",
    "href": "http://200.201.88.199/portalpos/media/File/tecnologiaegestao/PPP%20do%20PPGTGS%201382015-CEPE.pdf"
  },
  {
    "name": "Horário das Disciplinas -  2016",
    "href": "http://200.201.88.199/portalpos/media/File/tecnologiaegestao/Hor%C3%A1rio%20das%20disciplinas%20do%20PPGTGS%20-%202016.pdf"
  }
]